{
  "users": [
    {
      "lastname": "Empty",
      "name": "Adam",
      "id": 1
    },
    {
      "name": "Alice",
      "lastname": "FetchAPI",
      "id": 2
    },
    {
      "name": "Alice",
      "lastname": "FetchAPI",
      "id": 3
    },
    {
      "name": "Alice",
      "lastname": "FetchAPI",
      "id": 4
    },
    {
      "name": "Alice",
      "lastname": "FetchAPI",
      "id": 5
    },
    {
      "name": "Alice",
      "lastname": "FetchAPI",
      "id": 6
    },
    {
      "name": "Alice",
      "lastname": "FetchAPI",
      "id": 7
    },
    {
      "name": "Alice",
      "lastname": "FetchAPI",
      "id": 8
    },
    {
      "name": "Alice",
      "lastname": "XMLHttpRequest",
      "id": 9
    },
    {
      "name": "Alice",
      "lastname": "XMLHttpRequest",
      "id": 10
    },
    {
      "name": "Alice",
      "lastname": "XMLHttpRequest",
      "id": 11
    },
    {
      "name": "Alice",
      "lastname": "XMLHttpRequest",
      "id": 12
    },
    {
      "name": "Alice",
      "lastname": "XMLHttpRequest",
      "id": 13
    },
    {
      "name": "Alice",
      "lastname": "XMLHttpRequest",
      "id": 14
    },
    {
      "name": "Alice",
      "lastname": "XMLHttpRequest",
      "id": 15
    },
    {
      "name": "Alice",
      "lastname": "XMLHttpRequest",
      "id": 16
    },
    {
      "name": "Alice",
      "lastname": "XMLHttpRequest",
      "id": 17
    },
    {
      "name": "Alice",
      "lastname": "XMLHttpRequest",
      "id": 18
    },
    {
      "name": "Alice",
      "lastname": "XMLHttpRequest",
      "id": 19
    },
    {
      "name": "Alice",
      "lastname": "XMLHttpRequest",
      "id": 20
    },
    {
      "name": "Alice",
      "lastname": "XMLHttpRequest",
      "id": 21
    },
    {
      "name": "Alice",
      "lastname": "XMLHttpRequest",
      "id": 22
    },
    {
      "name": "Alice",
      "lastname": "XMLHttpRequest",
      "id": 23
    },
    {
      "name": "Alice",
      "lastname": "XMLHttpRequest",
      "id": 24
    },
    {
      "name": "Alice",
      "lastname": "XMLHttpRequest",
      "id": 25
    },
    {
      "name": "Alice",
      "lastname": "XMLHttpRequest",
      "id": 26
    },
    {
      "name": "Alice",
      "lastname": "XMLHttpRequest",
      "id": 27
    },
    {
      "name": "Alice",
      "lastname": "XMLHttpRequest",
      "id": 28
    },
    {
      "name": "Alice",
      "lastname": "XMLHttpRequest",
      "id": 29
    },
    {
      "name": "Alice",
      "lastname": "XMLHttpRequest",
      "id": 30
    },
    {
      "name": "Alice",
      "lastname": "XMLHttpRequest",
      "id": 31
    },
    {
      "name": "Alice",
      "lastname": "XMLHttpRequest",
      "id": 32
    },
    {
      "name": "Alice",
      "lastname": "XMLHttpRequest",
      "id": 33
    }
  ]
}